"Source:","/home/francois/GITLAB/diy/diy_USBJACK_AMP/kicad/kicad.kicad_sch"
"Date:","ven. 18 mars 2022 16:05:14"
"Tool:","Eeschema 6.0.2+dfsg-1"
"Generator:","/usr/share/kicad/plugins/bom_csv_grouped_by_value.py"
"Component Count:","49"

"Individual Components:"

"Item","Qty","Reference(s)","Value","LibPart","Footprint","Datasheet"
"","","C1","100µ10V","Device:C_Polarized_Small_US","Capacitor_SMD:CP_Elec_4x4.5","~"
"","","C2","100n","Device:C_Small","Capacitor_SMD:C_0603_1608Metric","~"
"","","C3","100µ25v","Device:C_Polarized_Small_US","Capacitor_SMD:CP_Elec_5x5.4","~"
"","","C4","100µ25v","Device:C_Polarized_Small_US","Capacitor_SMD:CP_Elec_5x5.4","~"
"","","C5","100n","Device:C_Small","Capacitor_SMD:C_0603_1608Metric","~"
"","","C6","100n","Device:C_Small","Capacitor_SMD:C_0603_1608Metric","~"
"","","C7","100µ25v","Device:C_Polarized_Small_US","Capacitor_SMD:CP_Elec_5x5.4","~"
"","","C8","100µ25v","Device:C_Polarized_Small_US","Capacitor_SMD:CP_Elec_5x5.4","~"
"","","C9","100n","Device:C_Small","Capacitor_SMD:C_0603_1608Metric","~"
"","","C10","100n","Device:C_Small","Capacitor_SMD:C_0603_1608Metric","~"
"","","C11","25µF","Device:C_Small","","~"
"","","C12","2µF","Device:C_Small","","~"
"","","C13","35µF","Device:C_Small","","~"
"","","C14","33µF","Device:C_Small","","~"
"","","C15","25µF","Device:C_Small","","~"
"","","C16","2µF","Device:C_Small","","~"
"","","C17","35µF","Device:C_Small","","~"
"","","C18","33µF","Device:C_Small","","~"
"","","D1","LED","Device:LED","Connector_JST:JST_EH_B2B-EH-A_1x02_P2.50mm_Vertical","~"
"","","J1","USB_A","Connector:USB_A","Connector_USB:USB_A_Molex_67643_Horizontal"," ~"
"","","J2","AudioJack3","Connector:AudioJack3","Connector_Audio:Jack_3.5mm_Switronic_ST-005-G_horizontal","~"
"","","J3","Right_bass","Connector:Conn_01x02_Male","","~"
"","","J4","Right_tweeter","Connector:Conn_01x02_Male","","~"
"","","J5","Right_medium","Connector:Conn_01x02_Male","","~"
"","","J6","Left_bass","Connector:Conn_01x02_Male","","~"
"","","J7","Left_tweeter","Connector:Conn_01x02_Male","","~"
"","","J8","Left_medium","Connector:Conn_01x02_Male","","~"
"","","J9","LEFTWITHOUT_filter","Connector:Conn_01x02_Male","","~"
"","","J10","RIGHTWITHOUT_filter","Connector:Conn_01x02_Male","","~"
"","","L1","4.5mH","Device:L","","~"
"","","L2","3.5mH","Device:L","","~"
"","","L3","0.26mH","Device:L","","~"
"","","L4","4.5mH","Device:L","","~"
"","","L5","4.5mH","Device:L","","~"
"","","L6","3.5mH","Device:L","","~"
"","","L7","0.26mH","Device:L","","~"
"","","L8","4.5mH","Device:L","","~"
"","","R1","1k","Device:R_US","Resistor_SMD:R_0805_2012Metric","~"
"","","R2","680r","Device:R_US","Resistor_SMD:R_0805_2012Metric","~"
"","","R3","47k","Device:R_US","Resistor_SMD:R_0805_2012Metric","~"
"","","R4","47k","Device:R_US","Resistor_SMD:R_0805_2012Metric","~"
"","","R5","4.7r","Device:R_US","Resistor_SMD:R_0805_2012Metric","~"
"","","R6","4.7r","Device:R_US","Resistor_SMD:R_0805_2012Metric","~"
"","","RV1","47k","Device:R_Potentiometer_US","Connector_JST:JST_EH_B3B-EH-A_1x03_P2.50mm_Vertical","~"
"","","RV2","47k","Device:R_Potentiometer_US","Connector_JST:JST_EH_B3B-EH-A_1x03_P2.50mm_Vertical","~"
"","","SW1","On-OFF","Switch:SW_SPDT","Connector_JST:JST_EH_B3B-EH-A_1x03_P2.50mm_Vertical","~"
"","","SW2","SW_SPDT","Switch:SW_SPDT","","~"
"","","SW3","SW_SPDT","Switch:SW_SPDT","","~"
"","","U1","tda2822m","Amplifier_Audio:tda2822m","Package_DIP:DIP-8_W7.62mm_LongPads",""



"Collated Components:"

"Item","Qty","Reference(s)","Value","LibPart","Footprint","Datasheet"
"1","1","C1","100µ10V","Device:C_Polarized_Small_US","Capacitor_SMD:CP_Elec_4x4.5","~"
"2","5","C2, C5, C6, C9, C10","100n","Device:C_Small","Capacitor_SMD:C_0603_1608Metric","~"
"3","4","C3, C4, C7, C8","100µ25v","Device:C_Polarized_Small_US","Capacitor_SMD:CP_Elec_5x5.4","~"
"4","2","C11, C15","25µF","Device:C_Small","","~"
"5","2","C12, C16","2µF","Device:C_Small","","~"
"6","2","C13, C17","35µF","Device:C_Small","","~"
"7","2","C14, C18","33µF","Device:C_Small","","~"
"8","1","D1","LED","Device:LED","Connector_JST:JST_EH_B2B-EH-A_1x02_P2.50mm_Vertical","~"
"9","1","J1","USB_A","Connector:USB_A","Connector_USB:USB_A_Molex_67643_Horizontal"," ~"
"10","1","J2","AudioJack3","Connector:AudioJack3","Connector_Audio:Jack_3.5mm_Switronic_ST-005-G_horizontal","~"
"11","1","J3","Right_bass","Connector:Conn_01x02_Male","","~"
"12","1","J4","Right_tweeter","Connector:Conn_01x02_Male","","~"
"13","1","J5","Right_medium","Connector:Conn_01x02_Male","","~"
"14","1","J6","Left_bass","Connector:Conn_01x02_Male","","~"
"15","1","J7","Left_tweeter","Connector:Conn_01x02_Male","","~"
"16","1","J8","Left_medium","Connector:Conn_01x02_Male","","~"
"17","1","J9","LEFTWITHOUT_filter","Connector:Conn_01x02_Male","","~"
"18","1","J10","RIGHTWITHOUT_filter","Connector:Conn_01x02_Male","","~"
"19","4","L1, L4, L5, L8","4.5mH","Device:L","","~"
"20","2","L2, L6","3.5mH","Device:L","","~"
"21","2","L3, L7","0.26mH","Device:L","","~"
"22","1","R1","1k","Device:R_US","Resistor_SMD:R_0805_2012Metric","~"
"23","1","R2","680r","Device:R_US","Resistor_SMD:R_0805_2012Metric","~"
"24","2","R3, R4","47k","Device:R_US","Resistor_SMD:R_0805_2012Metric","~"
"25","2","R5, R6","4.7r","Device:R_US","Resistor_SMD:R_0805_2012Metric","~"
"26","2","RV1, RV2","47k","Device:R_Potentiometer_US","Connector_JST:JST_EH_B3B-EH-A_1x03_P2.50mm_Vertical","~"
"27","1","SW1","On-OFF","Switch:SW_SPDT","Connector_JST:JST_EH_B3B-EH-A_1x03_P2.50mm_Vertical","~"
"28","2","SW2, SW3","SW_SPDT","Switch:SW_SPDT","","~"
"29","1","U1","tda2822m","Amplifier_Audio:tda2822m","Package_DIP:DIP-8_W7.62mm_LongPads",""
