%TF.GenerationSoftware,KiCad,Pcbnew,8.0.1+b2*%
%TF.CreationDate,2024-05-01T21:28:45+02:00*%
%TF.ProjectId,kicad,6b696361-642e-46b6-9963-61645f706362,V0.1.0*%
%TF.SameCoordinates,Original*%
%TF.FileFunction,Soldermask,Bot*%
%TF.FilePolarity,Negative*%
%FSLAX46Y46*%
G04 Gerber Fmt 4.6, Leading zero omitted, Abs format (unit mm)*
G04 Created by KiCad (PCBNEW 8.0.1+b2) date 2024-05-01 21:28:45*
%MOMM*%
%LPD*%
G01*
G04 APERTURE LIST*
G04 Aperture macros list*
%AMRoundRect*
0 Rectangle with rounded corners*
0 $1 Rounding radius*
0 $2 $3 $4 $5 $6 $7 $8 $9 X,Y pos of 4 corners*
0 Add a 4 corners polygon primitive as box body*
4,1,4,$2,$3,$4,$5,$6,$7,$8,$9,$2,$3,0*
0 Add four circle primitives for the rounded corners*
1,1,$1+$1,$2,$3*
1,1,$1+$1,$4,$5*
1,1,$1+$1,$6,$7*
1,1,$1+$1,$8,$9*
0 Add four rect primitives between the rounded corners*
20,1,$1+$1,$2,$3,$4,$5,0*
20,1,$1+$1,$4,$5,$6,$7,0*
20,1,$1+$1,$6,$7,$8,$9,0*
20,1,$1+$1,$8,$9,$2,$3,0*%
G04 Aperture macros list end*
%ADD10RoundRect,0.250000X0.600000X0.750000X-0.600000X0.750000X-0.600000X-0.750000X0.600000X-0.750000X0*%
%ADD11O,1.700000X2.000000*%
%ADD12C,1.000000*%
%ADD13R,1.900000X1.900000*%
%ADD14C,1.900000*%
%ADD15C,1.600000*%
%ADD16O,1.600000X1.600000*%
%ADD17RoundRect,0.250000X0.725000X-0.600000X0.725000X0.600000X-0.725000X0.600000X-0.725000X-0.600000X0*%
%ADD18O,1.950000X1.700000*%
%ADD19RoundRect,0.375000X0.375000X0.625000X-0.375000X0.625000X-0.375000X-0.625000X0.375000X-0.625000X0*%
%ADD20O,1.500000X2.000000*%
%ADD21R,1.500000X1.600000*%
%ADD22C,3.000000*%
%ADD23RoundRect,0.250000X0.600000X0.725000X-0.600000X0.725000X-0.600000X-0.725000X0.600000X-0.725000X0*%
%ADD24O,1.700000X1.950000*%
%ADD25RoundRect,0.250000X0.750000X-0.600000X0.750000X0.600000X-0.750000X0.600000X-0.750000X-0.600000X0*%
%ADD26O,2.000000X1.700000*%
%ADD27RoundRect,0.375000X-0.375000X-0.625000X0.375000X-0.625000X0.375000X0.625000X-0.375000X0.625000X0*%
%ADD28R,2.400000X1.600000*%
%ADD29O,2.400000X1.600000*%
%ADD30RoundRect,0.250000X-0.600000X-0.725000X0.600000X-0.725000X0.600000X0.725000X-0.600000X0.725000X0*%
%ADD31RoundRect,0.250000X-0.262500X-0.450000X0.262500X-0.450000X0.262500X0.450000X-0.262500X0.450000X0*%
%ADD32RoundRect,0.225000X0.250000X-0.225000X0.250000X0.225000X-0.250000X0.225000X-0.250000X-0.225000X0*%
%ADD33RoundRect,0.225000X-0.250000X0.225000X-0.250000X-0.225000X0.250000X-0.225000X0.250000X0.225000X0*%
%ADD34RoundRect,0.225000X-0.225000X-0.250000X0.225000X-0.250000X0.225000X0.250000X-0.225000X0.250000X0*%
%ADD35RoundRect,0.250000X0.450000X-0.262500X0.450000X0.262500X-0.450000X0.262500X-0.450000X-0.262500X0*%
G04 APERTURE END LIST*
D10*
%TO.C,R-Bass/loud*%
X193040000Y-87630000D03*
D11*
X190540000Y-87630000D03*
%TD*%
D12*
%TO.C,Input Stereo wires or jack*%
X99071792Y-96520000D03*
X99071792Y-101520000D03*
D13*
X103071792Y-96770000D03*
D14*
X103071792Y-101270000D03*
X95571792Y-101920000D03*
X95571792Y-96120000D03*
%TD*%
D15*
%TO.C,L2*%
X177800000Y-99060000D03*
D16*
X185420000Y-99060000D03*
%TD*%
D17*
%TO.C,R-filter_Y/N*%
X151130000Y-100330000D03*
D18*
X151130000Y-97830000D03*
X151130000Y-95330000D03*
%TD*%
D15*
%TO.C,C15*%
X160020000Y-71160000D03*
X160020000Y-76160000D03*
%TD*%
D10*
%TO.C,L-tweet*%
X167640000Y-99060000D03*
D11*
X165140000Y-99060000D03*
%TD*%
D15*
%TO.C,L1*%
X181610000Y-93980000D03*
D16*
X189230000Y-93980000D03*
%TD*%
D19*
%TO.C,NO_FILTER_R*%
X142240000Y-99060000D03*
D20*
X139740000Y-99060000D03*
%TD*%
D15*
%TO.C,C14*%
X173990000Y-82550000D03*
X173990000Y-87550000D03*
%TD*%
%TO.C,C18*%
X149860000Y-88940000D03*
X144860000Y-88940000D03*
%TD*%
%TO.C,L5*%
X163830000Y-71120000D03*
D16*
X163830000Y-78740000D03*
%TD*%
D15*
%TO.C,L4*%
X177800000Y-90170000D03*
D16*
X177800000Y-82550000D03*
%TD*%
D17*
%TO.C,OFF/ON*%
X109220000Y-76120000D03*
D18*
X109220000Y-73620000D03*
X109220000Y-71120000D03*
%TD*%
D21*
%TO.C,USB 5V no_data*%
X101770000Y-74190000D03*
D15*
X101770000Y-76690000D03*
X101770000Y-78690000D03*
X101770000Y-81190000D03*
D22*
X99060000Y-84260000D03*
X99060000Y-71120000D03*
%TD*%
D15*
%TO.C,C12*%
X181610000Y-85090000D03*
X181610000Y-80090000D03*
%TD*%
D23*
%TO.C,L-Vol.*%
X115570000Y-90130000D03*
D24*
X113070000Y-90130000D03*
X110570000Y-90130000D03*
%TD*%
D15*
%TO.C,C17*%
X167640000Y-76120000D03*
X167640000Y-71120000D03*
%TD*%
D10*
%TO.C,L-Bass/Loud*%
X167640000Y-83820000D03*
D11*
X165140000Y-83820000D03*
%TD*%
D25*
%TO.C,D1*%
X121386666Y-73660000D03*
D26*
X121386666Y-71160000D03*
%TD*%
D27*
%TO.C,NO_FILTER_L*%
X139700000Y-73660000D03*
D20*
X142200000Y-73660000D03*
%TD*%
D15*
%TO.C,C13*%
X194270000Y-99060000D03*
X189270000Y-99060000D03*
%TD*%
%TO.C,L8*%
X151130000Y-83820000D03*
D16*
X158750000Y-83820000D03*
%TD*%
D15*
%TO.C,L6*%
X156210000Y-71120000D03*
D16*
X156210000Y-78740000D03*
%TD*%
D15*
%TO.C,C16*%
X153710000Y-88900000D03*
X158710000Y-88900000D03*
%TD*%
%TO.C,C11*%
X185420000Y-80010000D03*
X185420000Y-85010000D03*
%TD*%
D10*
%TO.C,L-Medium*%
X167640000Y-91440000D03*
D11*
X165140000Y-91440000D03*
%TD*%
D10*
%TO.C,R-Medium*%
X193040000Y-80010000D03*
D11*
X190540000Y-80010000D03*
%TD*%
D28*
%TO.C,U1*%
X123175000Y-82520000D03*
D29*
X123175000Y-85060000D03*
X123175000Y-87600000D03*
X123175000Y-90140000D03*
X130795000Y-90140000D03*
X130795000Y-87600000D03*
X130795000Y-85060000D03*
X130795000Y-82520000D03*
%TD*%
D17*
%TO.C,L-filter_Y/N*%
X149860000Y-77470000D03*
D18*
X149860000Y-74970000D03*
X149860000Y-72470000D03*
%TD*%
D15*
%TO.C,L3*%
X171450000Y-71120000D03*
D16*
X179070000Y-71120000D03*
%TD*%
D15*
%TO.C,L7*%
X173990000Y-91440000D03*
D16*
X173990000Y-99060000D03*
%TD*%
D10*
%TO.C,R-Tweet*%
X193040000Y-72390000D03*
D11*
X190540000Y-72390000D03*
%TD*%
D30*
%TO.C,R-Vol.*%
X110570000Y-96530000D03*
D24*
X113070000Y-96530000D03*
X115570000Y-96530000D03*
%TD*%
D31*
%TO.C,R2*%
X119380000Y-67310000D03*
X121205000Y-67310000D03*
%TD*%
D32*
%TO.C,C9*%
X133350000Y-70625000D03*
X133350000Y-69075000D03*
%TD*%
%TO.C,C10*%
X133350000Y-102375000D03*
X133350000Y-100825000D03*
%TD*%
D33*
%TO.C,C2*%
X115570000Y-66535000D03*
X115570000Y-68085000D03*
%TD*%
D31*
%TO.C,R5*%
X133707500Y-77470000D03*
X135532500Y-77470000D03*
%TD*%
%TO.C,R1*%
X109577500Y-67310000D03*
X111402500Y-67310000D03*
%TD*%
%TO.C,R3*%
X108665000Y-85090000D03*
X110490000Y-85090000D03*
%TD*%
%TO.C,R4*%
X103227500Y-92710000D03*
X105052500Y-92710000D03*
%TD*%
D34*
%TO.C,C6*%
X107175000Y-101600000D03*
X108725000Y-101600000D03*
%TD*%
D35*
%TO.C,R6*%
X133350000Y-97432500D03*
X133350000Y-95607500D03*
%TD*%
D34*
%TO.C,C5*%
X113525000Y-85090000D03*
X115075000Y-85090000D03*
%TD*%
M02*
