%TF.GenerationSoftware,KiCad,Pcbnew,8.0.1+b2*%
%TF.CreationDate,2024-05-01T21:28:38+02:00*%
%TF.ProjectId,kicad,6b696361-642e-46b6-9963-61645f706362,V0.1.0*%
%TF.SameCoordinates,Original*%
%TF.FileFunction,Drillmap*%
%TF.FilePolarity,Positive*%
%FSLAX45Y45*%
G04 Gerber Fmt 4.5, Leading zero omitted, Abs format (unit mm)*
G04 Created by KiCad (PCBNEW 8.0.1+b2) date 2024-05-01 21:28:38*
%MOMM*%
%LPD*%
G01*
G04 APERTURE LIST*
%ADD10C,0.100000*%
%ADD11C,0.200000*%
G04 APERTURE END LIST*
D10*
X8890000Y-6350000D02*
X19939000Y-6350000D01*
X19939000Y-10541000D01*
X8890000Y-10541000D01*
X8890000Y-6350000D01*
D11*
D10*
X9857179Y-9602000D02*
X9957179Y-9702000D01*
X9957179Y-9602000D02*
X9857179Y-9702000D01*
X9857179Y-10102000D02*
X9957179Y-10202000D01*
X9957179Y-10102000D02*
X9857179Y-10202000D01*
D11*
X9145777Y-10857484D02*
X9145777Y-10657484D01*
X9145777Y-10657484D02*
X9193396Y-10657484D01*
X9193396Y-10657484D02*
X9221967Y-10667008D01*
X9221967Y-10667008D02*
X9241015Y-10686055D01*
X9241015Y-10686055D02*
X9250539Y-10705103D01*
X9250539Y-10705103D02*
X9260063Y-10743198D01*
X9260063Y-10743198D02*
X9260063Y-10771770D01*
X9260063Y-10771770D02*
X9250539Y-10809865D01*
X9250539Y-10809865D02*
X9241015Y-10828912D01*
X9241015Y-10828912D02*
X9221967Y-10847960D01*
X9221967Y-10847960D02*
X9193396Y-10857484D01*
X9193396Y-10857484D02*
X9145777Y-10857484D01*
X9345777Y-10857484D02*
X9345777Y-10724150D01*
X9345777Y-10762246D02*
X9355301Y-10743198D01*
X9355301Y-10743198D02*
X9364824Y-10733674D01*
X9364824Y-10733674D02*
X9383872Y-10724150D01*
X9383872Y-10724150D02*
X9402920Y-10724150D01*
X9469586Y-10857484D02*
X9469586Y-10724150D01*
X9469586Y-10657484D02*
X9460063Y-10667008D01*
X9460063Y-10667008D02*
X9469586Y-10676531D01*
X9469586Y-10676531D02*
X9479110Y-10667008D01*
X9479110Y-10667008D02*
X9469586Y-10657484D01*
X9469586Y-10657484D02*
X9469586Y-10676531D01*
X9593396Y-10857484D02*
X9574348Y-10847960D01*
X9574348Y-10847960D02*
X9564824Y-10828912D01*
X9564824Y-10828912D02*
X9564824Y-10657484D01*
X9698158Y-10857484D02*
X9679110Y-10847960D01*
X9679110Y-10847960D02*
X9669586Y-10828912D01*
X9669586Y-10828912D02*
X9669586Y-10657484D01*
X9926729Y-10857484D02*
X9926729Y-10657484D01*
X9926729Y-10657484D02*
X9993396Y-10800341D01*
X9993396Y-10800341D02*
X10060063Y-10657484D01*
X10060063Y-10657484D02*
X10060063Y-10857484D01*
X10241015Y-10857484D02*
X10241015Y-10752722D01*
X10241015Y-10752722D02*
X10231491Y-10733674D01*
X10231491Y-10733674D02*
X10212444Y-10724150D01*
X10212444Y-10724150D02*
X10174348Y-10724150D01*
X10174348Y-10724150D02*
X10155301Y-10733674D01*
X10241015Y-10847960D02*
X10221967Y-10857484D01*
X10221967Y-10857484D02*
X10174348Y-10857484D01*
X10174348Y-10857484D02*
X10155301Y-10847960D01*
X10155301Y-10847960D02*
X10145777Y-10828912D01*
X10145777Y-10828912D02*
X10145777Y-10809865D01*
X10145777Y-10809865D02*
X10155301Y-10790817D01*
X10155301Y-10790817D02*
X10174348Y-10781293D01*
X10174348Y-10781293D02*
X10221967Y-10781293D01*
X10221967Y-10781293D02*
X10241015Y-10771770D01*
X10336253Y-10724150D02*
X10336253Y-10924150D01*
X10336253Y-10733674D02*
X10355301Y-10724150D01*
X10355301Y-10724150D02*
X10393396Y-10724150D01*
X10393396Y-10724150D02*
X10412444Y-10733674D01*
X10412444Y-10733674D02*
X10421967Y-10743198D01*
X10421967Y-10743198D02*
X10431491Y-10762246D01*
X10431491Y-10762246D02*
X10431491Y-10819389D01*
X10431491Y-10819389D02*
X10421967Y-10838436D01*
X10421967Y-10838436D02*
X10412444Y-10847960D01*
X10412444Y-10847960D02*
X10393396Y-10857484D01*
X10393396Y-10857484D02*
X10355301Y-10857484D01*
X10355301Y-10857484D02*
X10336253Y-10847960D01*
X10517205Y-10838436D02*
X10526729Y-10847960D01*
X10526729Y-10847960D02*
X10517205Y-10857484D01*
X10517205Y-10857484D02*
X10507682Y-10847960D01*
X10507682Y-10847960D02*
X10517205Y-10838436D01*
X10517205Y-10838436D02*
X10517205Y-10857484D01*
X10517205Y-10733674D02*
X10526729Y-10743198D01*
X10526729Y-10743198D02*
X10517205Y-10752722D01*
X10517205Y-10752722D02*
X10507682Y-10743198D01*
X10507682Y-10743198D02*
X10517205Y-10733674D01*
X10517205Y-10733674D02*
X10517205Y-10752722D01*
D10*
X8785000Y-11136000D02*
X8885000Y-11236000D01*
X8885000Y-11136000D02*
X8785000Y-11236000D01*
D11*
X9250539Y-11277484D02*
X9136253Y-11277484D01*
X9193396Y-11277484D02*
X9193396Y-11077484D01*
X9193396Y-11077484D02*
X9174348Y-11106055D01*
X9174348Y-11106055D02*
X9155301Y-11125103D01*
X9155301Y-11125103D02*
X9136253Y-11134627D01*
X9336253Y-11258436D02*
X9345777Y-11267960D01*
X9345777Y-11267960D02*
X9336253Y-11277484D01*
X9336253Y-11277484D02*
X9326729Y-11267960D01*
X9326729Y-11267960D02*
X9336253Y-11258436D01*
X9336253Y-11258436D02*
X9336253Y-11277484D01*
X9469586Y-11077484D02*
X9488634Y-11077484D01*
X9488634Y-11077484D02*
X9507682Y-11087008D01*
X9507682Y-11087008D02*
X9517205Y-11096531D01*
X9517205Y-11096531D02*
X9526729Y-11115579D01*
X9526729Y-11115579D02*
X9536253Y-11153674D01*
X9536253Y-11153674D02*
X9536253Y-11201293D01*
X9536253Y-11201293D02*
X9526729Y-11239388D01*
X9526729Y-11239388D02*
X9517205Y-11258436D01*
X9517205Y-11258436D02*
X9507682Y-11267960D01*
X9507682Y-11267960D02*
X9488634Y-11277484D01*
X9488634Y-11277484D02*
X9469586Y-11277484D01*
X9469586Y-11277484D02*
X9450539Y-11267960D01*
X9450539Y-11267960D02*
X9441015Y-11258436D01*
X9441015Y-11258436D02*
X9431491Y-11239388D01*
X9431491Y-11239388D02*
X9421967Y-11201293D01*
X9421967Y-11201293D02*
X9421967Y-11153674D01*
X9421967Y-11153674D02*
X9431491Y-11115579D01*
X9431491Y-11115579D02*
X9441015Y-11096531D01*
X9441015Y-11096531D02*
X9450539Y-11087008D01*
X9450539Y-11087008D02*
X9469586Y-11077484D01*
X9660063Y-11077484D02*
X9679110Y-11077484D01*
X9679110Y-11077484D02*
X9698158Y-11087008D01*
X9698158Y-11087008D02*
X9707682Y-11096531D01*
X9707682Y-11096531D02*
X9717205Y-11115579D01*
X9717205Y-11115579D02*
X9726729Y-11153674D01*
X9726729Y-11153674D02*
X9726729Y-11201293D01*
X9726729Y-11201293D02*
X9717205Y-11239388D01*
X9717205Y-11239388D02*
X9707682Y-11258436D01*
X9707682Y-11258436D02*
X9698158Y-11267960D01*
X9698158Y-11267960D02*
X9679110Y-11277484D01*
X9679110Y-11277484D02*
X9660063Y-11277484D01*
X9660063Y-11277484D02*
X9641015Y-11267960D01*
X9641015Y-11267960D02*
X9631491Y-11258436D01*
X9631491Y-11258436D02*
X9621967Y-11239388D01*
X9621967Y-11239388D02*
X9612444Y-11201293D01*
X9612444Y-11201293D02*
X9612444Y-11153674D01*
X9612444Y-11153674D02*
X9621967Y-11115579D01*
X9621967Y-11115579D02*
X9631491Y-11096531D01*
X9631491Y-11096531D02*
X9641015Y-11087008D01*
X9641015Y-11087008D02*
X9660063Y-11077484D01*
X9850539Y-11077484D02*
X9869586Y-11077484D01*
X9869586Y-11077484D02*
X9888634Y-11087008D01*
X9888634Y-11087008D02*
X9898158Y-11096531D01*
X9898158Y-11096531D02*
X9907682Y-11115579D01*
X9907682Y-11115579D02*
X9917205Y-11153674D01*
X9917205Y-11153674D02*
X9917205Y-11201293D01*
X9917205Y-11201293D02*
X9907682Y-11239388D01*
X9907682Y-11239388D02*
X9898158Y-11258436D01*
X9898158Y-11258436D02*
X9888634Y-11267960D01*
X9888634Y-11267960D02*
X9869586Y-11277484D01*
X9869586Y-11277484D02*
X9850539Y-11277484D01*
X9850539Y-11277484D02*
X9831491Y-11267960D01*
X9831491Y-11267960D02*
X9821967Y-11258436D01*
X9821967Y-11258436D02*
X9812444Y-11239388D01*
X9812444Y-11239388D02*
X9802920Y-11201293D01*
X9802920Y-11201293D02*
X9802920Y-11153674D01*
X9802920Y-11153674D02*
X9812444Y-11115579D01*
X9812444Y-11115579D02*
X9821967Y-11096531D01*
X9821967Y-11096531D02*
X9831491Y-11087008D01*
X9831491Y-11087008D02*
X9850539Y-11077484D01*
X10002920Y-11277484D02*
X10002920Y-11144150D01*
X10002920Y-11163198D02*
X10012444Y-11153674D01*
X10012444Y-11153674D02*
X10031491Y-11144150D01*
X10031491Y-11144150D02*
X10060063Y-11144150D01*
X10060063Y-11144150D02*
X10079110Y-11153674D01*
X10079110Y-11153674D02*
X10088634Y-11172722D01*
X10088634Y-11172722D02*
X10088634Y-11277484D01*
X10088634Y-11172722D02*
X10098158Y-11153674D01*
X10098158Y-11153674D02*
X10117205Y-11144150D01*
X10117205Y-11144150D02*
X10145777Y-11144150D01*
X10145777Y-11144150D02*
X10164825Y-11153674D01*
X10164825Y-11153674D02*
X10174348Y-11172722D01*
X10174348Y-11172722D02*
X10174348Y-11277484D01*
X10269586Y-11277484D02*
X10269586Y-11144150D01*
X10269586Y-11163198D02*
X10279110Y-11153674D01*
X10279110Y-11153674D02*
X10298158Y-11144150D01*
X10298158Y-11144150D02*
X10326729Y-11144150D01*
X10326729Y-11144150D02*
X10345777Y-11153674D01*
X10345777Y-11153674D02*
X10355301Y-11172722D01*
X10355301Y-11172722D02*
X10355301Y-11277484D01*
X10355301Y-11172722D02*
X10364825Y-11153674D01*
X10364825Y-11153674D02*
X10383872Y-11144150D01*
X10383872Y-11144150D02*
X10412444Y-11144150D01*
X10412444Y-11144150D02*
X10431491Y-11153674D01*
X10431491Y-11153674D02*
X10441015Y-11172722D01*
X10441015Y-11172722D02*
X10441015Y-11277484D01*
X10831491Y-11067960D02*
X10660063Y-11325103D01*
X11088634Y-11077484D02*
X11107682Y-11077484D01*
X11107682Y-11077484D02*
X11126729Y-11087008D01*
X11126729Y-11087008D02*
X11136253Y-11096531D01*
X11136253Y-11096531D02*
X11145777Y-11115579D01*
X11145777Y-11115579D02*
X11155301Y-11153674D01*
X11155301Y-11153674D02*
X11155301Y-11201293D01*
X11155301Y-11201293D02*
X11145777Y-11239388D01*
X11145777Y-11239388D02*
X11136253Y-11258436D01*
X11136253Y-11258436D02*
X11126729Y-11267960D01*
X11126729Y-11267960D02*
X11107682Y-11277484D01*
X11107682Y-11277484D02*
X11088634Y-11277484D01*
X11088634Y-11277484D02*
X11069587Y-11267960D01*
X11069587Y-11267960D02*
X11060063Y-11258436D01*
X11060063Y-11258436D02*
X11050539Y-11239388D01*
X11050539Y-11239388D02*
X11041015Y-11201293D01*
X11041015Y-11201293D02*
X11041015Y-11153674D01*
X11041015Y-11153674D02*
X11050539Y-11115579D01*
X11050539Y-11115579D02*
X11060063Y-11096531D01*
X11060063Y-11096531D02*
X11069587Y-11087008D01*
X11069587Y-11087008D02*
X11088634Y-11077484D01*
X11241015Y-11258436D02*
X11250539Y-11267960D01*
X11250539Y-11267960D02*
X11241015Y-11277484D01*
X11241015Y-11277484D02*
X11231491Y-11267960D01*
X11231491Y-11267960D02*
X11241015Y-11258436D01*
X11241015Y-11258436D02*
X11241015Y-11277484D01*
X11374348Y-11077484D02*
X11393396Y-11077484D01*
X11393396Y-11077484D02*
X11412444Y-11087008D01*
X11412444Y-11087008D02*
X11421967Y-11096531D01*
X11421967Y-11096531D02*
X11431491Y-11115579D01*
X11431491Y-11115579D02*
X11441015Y-11153674D01*
X11441015Y-11153674D02*
X11441015Y-11201293D01*
X11441015Y-11201293D02*
X11431491Y-11239388D01*
X11431491Y-11239388D02*
X11421967Y-11258436D01*
X11421967Y-11258436D02*
X11412444Y-11267960D01*
X11412444Y-11267960D02*
X11393396Y-11277484D01*
X11393396Y-11277484D02*
X11374348Y-11277484D01*
X11374348Y-11277484D02*
X11355301Y-11267960D01*
X11355301Y-11267960D02*
X11345777Y-11258436D01*
X11345777Y-11258436D02*
X11336253Y-11239388D01*
X11336253Y-11239388D02*
X11326729Y-11201293D01*
X11326729Y-11201293D02*
X11326729Y-11153674D01*
X11326729Y-11153674D02*
X11336253Y-11115579D01*
X11336253Y-11115579D02*
X11345777Y-11096531D01*
X11345777Y-11096531D02*
X11355301Y-11087008D01*
X11355301Y-11087008D02*
X11374348Y-11077484D01*
X11507682Y-11077484D02*
X11631491Y-11077484D01*
X11631491Y-11077484D02*
X11564825Y-11153674D01*
X11564825Y-11153674D02*
X11593396Y-11153674D01*
X11593396Y-11153674D02*
X11612444Y-11163198D01*
X11612444Y-11163198D02*
X11621967Y-11172722D01*
X11621967Y-11172722D02*
X11631491Y-11191769D01*
X11631491Y-11191769D02*
X11631491Y-11239388D01*
X11631491Y-11239388D02*
X11621967Y-11258436D01*
X11621967Y-11258436D02*
X11612444Y-11267960D01*
X11612444Y-11267960D02*
X11593396Y-11277484D01*
X11593396Y-11277484D02*
X11536253Y-11277484D01*
X11536253Y-11277484D02*
X11517206Y-11267960D01*
X11517206Y-11267960D02*
X11507682Y-11258436D01*
X11726729Y-11277484D02*
X11764825Y-11277484D01*
X11764825Y-11277484D02*
X11783872Y-11267960D01*
X11783872Y-11267960D02*
X11793396Y-11258436D01*
X11793396Y-11258436D02*
X11812444Y-11229865D01*
X11812444Y-11229865D02*
X11821967Y-11191769D01*
X11821967Y-11191769D02*
X11821967Y-11115579D01*
X11821967Y-11115579D02*
X11812444Y-11096531D01*
X11812444Y-11096531D02*
X11802920Y-11087008D01*
X11802920Y-11087008D02*
X11783872Y-11077484D01*
X11783872Y-11077484D02*
X11745777Y-11077484D01*
X11745777Y-11077484D02*
X11726729Y-11087008D01*
X11726729Y-11087008D02*
X11717206Y-11096531D01*
X11717206Y-11096531D02*
X11707682Y-11115579D01*
X11707682Y-11115579D02*
X11707682Y-11163198D01*
X11707682Y-11163198D02*
X11717206Y-11182246D01*
X11717206Y-11182246D02*
X11726729Y-11191769D01*
X11726729Y-11191769D02*
X11745777Y-11201293D01*
X11745777Y-11201293D02*
X11783872Y-11201293D01*
X11783872Y-11201293D02*
X11802920Y-11191769D01*
X11802920Y-11191769D02*
X11812444Y-11182246D01*
X11812444Y-11182246D02*
X11821967Y-11163198D01*
X11993396Y-11144150D02*
X11993396Y-11277484D01*
X11945777Y-11067960D02*
X11898158Y-11210817D01*
X11898158Y-11210817D02*
X12021967Y-11210817D01*
X12088634Y-11077484D02*
X12088634Y-11115579D01*
X12164825Y-11077484D02*
X12164825Y-11115579D01*
X12460063Y-11353674D02*
X12450539Y-11344150D01*
X12450539Y-11344150D02*
X12431491Y-11315579D01*
X12431491Y-11315579D02*
X12421968Y-11296531D01*
X12421968Y-11296531D02*
X12412444Y-11267960D01*
X12412444Y-11267960D02*
X12402920Y-11220341D01*
X12402920Y-11220341D02*
X12402920Y-11182246D01*
X12402920Y-11182246D02*
X12412444Y-11134627D01*
X12412444Y-11134627D02*
X12421968Y-11106055D01*
X12421968Y-11106055D02*
X12431491Y-11087008D01*
X12431491Y-11087008D02*
X12450539Y-11058436D01*
X12450539Y-11058436D02*
X12460063Y-11048912D01*
X12526729Y-11096531D02*
X12536253Y-11087008D01*
X12536253Y-11087008D02*
X12555301Y-11077484D01*
X12555301Y-11077484D02*
X12602920Y-11077484D01*
X12602920Y-11077484D02*
X12621968Y-11087008D01*
X12621968Y-11087008D02*
X12631491Y-11096531D01*
X12631491Y-11096531D02*
X12641015Y-11115579D01*
X12641015Y-11115579D02*
X12641015Y-11134627D01*
X12641015Y-11134627D02*
X12631491Y-11163198D01*
X12631491Y-11163198D02*
X12517206Y-11277484D01*
X12517206Y-11277484D02*
X12641015Y-11277484D01*
X12879110Y-11277484D02*
X12879110Y-11077484D01*
X12964825Y-11277484D02*
X12964825Y-11172722D01*
X12964825Y-11172722D02*
X12955301Y-11153674D01*
X12955301Y-11153674D02*
X12936253Y-11144150D01*
X12936253Y-11144150D02*
X12907682Y-11144150D01*
X12907682Y-11144150D02*
X12888634Y-11153674D01*
X12888634Y-11153674D02*
X12879110Y-11163198D01*
X13088634Y-11277484D02*
X13069587Y-11267960D01*
X13069587Y-11267960D02*
X13060063Y-11258436D01*
X13060063Y-11258436D02*
X13050539Y-11239388D01*
X13050539Y-11239388D02*
X13050539Y-11182246D01*
X13050539Y-11182246D02*
X13060063Y-11163198D01*
X13060063Y-11163198D02*
X13069587Y-11153674D01*
X13069587Y-11153674D02*
X13088634Y-11144150D01*
X13088634Y-11144150D02*
X13117206Y-11144150D01*
X13117206Y-11144150D02*
X13136253Y-11153674D01*
X13136253Y-11153674D02*
X13145777Y-11163198D01*
X13145777Y-11163198D02*
X13155301Y-11182246D01*
X13155301Y-11182246D02*
X13155301Y-11239388D01*
X13155301Y-11239388D02*
X13145777Y-11258436D01*
X13145777Y-11258436D02*
X13136253Y-11267960D01*
X13136253Y-11267960D02*
X13117206Y-11277484D01*
X13117206Y-11277484D02*
X13088634Y-11277484D01*
X13269587Y-11277484D02*
X13250539Y-11267960D01*
X13250539Y-11267960D02*
X13241015Y-11248912D01*
X13241015Y-11248912D02*
X13241015Y-11077484D01*
X13421968Y-11267960D02*
X13402920Y-11277484D01*
X13402920Y-11277484D02*
X13364825Y-11277484D01*
X13364825Y-11277484D02*
X13345777Y-11267960D01*
X13345777Y-11267960D02*
X13336253Y-11248912D01*
X13336253Y-11248912D02*
X13336253Y-11172722D01*
X13336253Y-11172722D02*
X13345777Y-11153674D01*
X13345777Y-11153674D02*
X13364825Y-11144150D01*
X13364825Y-11144150D02*
X13402920Y-11144150D01*
X13402920Y-11144150D02*
X13421968Y-11153674D01*
X13421968Y-11153674D02*
X13431491Y-11172722D01*
X13431491Y-11172722D02*
X13431491Y-11191769D01*
X13431491Y-11191769D02*
X13336253Y-11210817D01*
X13507682Y-11267960D02*
X13526730Y-11277484D01*
X13526730Y-11277484D02*
X13564825Y-11277484D01*
X13564825Y-11277484D02*
X13583872Y-11267960D01*
X13583872Y-11267960D02*
X13593396Y-11248912D01*
X13593396Y-11248912D02*
X13593396Y-11239388D01*
X13593396Y-11239388D02*
X13583872Y-11220341D01*
X13583872Y-11220341D02*
X13564825Y-11210817D01*
X13564825Y-11210817D02*
X13536253Y-11210817D01*
X13536253Y-11210817D02*
X13517206Y-11201293D01*
X13517206Y-11201293D02*
X13507682Y-11182246D01*
X13507682Y-11182246D02*
X13507682Y-11172722D01*
X13507682Y-11172722D02*
X13517206Y-11153674D01*
X13517206Y-11153674D02*
X13536253Y-11144150D01*
X13536253Y-11144150D02*
X13564825Y-11144150D01*
X13564825Y-11144150D02*
X13583872Y-11153674D01*
X13660063Y-11353674D02*
X13669587Y-11344150D01*
X13669587Y-11344150D02*
X13688634Y-11315579D01*
X13688634Y-11315579D02*
X13698158Y-11296531D01*
X13698158Y-11296531D02*
X13707682Y-11267960D01*
X13707682Y-11267960D02*
X13717206Y-11220341D01*
X13717206Y-11220341D02*
X13717206Y-11182246D01*
X13717206Y-11182246D02*
X13707682Y-11134627D01*
X13707682Y-11134627D02*
X13698158Y-11106055D01*
X13698158Y-11106055D02*
X13688634Y-11087008D01*
X13688634Y-11087008D02*
X13669587Y-11058436D01*
X13669587Y-11058436D02*
X13660063Y-11048912D01*
X14021968Y-11353674D02*
X14012444Y-11344150D01*
X14012444Y-11344150D02*
X13993396Y-11315579D01*
X13993396Y-11315579D02*
X13983872Y-11296531D01*
X13983872Y-11296531D02*
X13974349Y-11267960D01*
X13974349Y-11267960D02*
X13964825Y-11220341D01*
X13964825Y-11220341D02*
X13964825Y-11182246D01*
X13964825Y-11182246D02*
X13974349Y-11134627D01*
X13974349Y-11134627D02*
X13983872Y-11106055D01*
X13983872Y-11106055D02*
X13993396Y-11087008D01*
X13993396Y-11087008D02*
X14012444Y-11058436D01*
X14012444Y-11058436D02*
X14021968Y-11048912D01*
X14098158Y-11144150D02*
X14098158Y-11277484D01*
X14098158Y-11163198D02*
X14107682Y-11153674D01*
X14107682Y-11153674D02*
X14126730Y-11144150D01*
X14126730Y-11144150D02*
X14155301Y-11144150D01*
X14155301Y-11144150D02*
X14174349Y-11153674D01*
X14174349Y-11153674D02*
X14183872Y-11172722D01*
X14183872Y-11172722D02*
X14183872Y-11277484D01*
X14307682Y-11277484D02*
X14288634Y-11267960D01*
X14288634Y-11267960D02*
X14279111Y-11258436D01*
X14279111Y-11258436D02*
X14269587Y-11239388D01*
X14269587Y-11239388D02*
X14269587Y-11182246D01*
X14269587Y-11182246D02*
X14279111Y-11163198D01*
X14279111Y-11163198D02*
X14288634Y-11153674D01*
X14288634Y-11153674D02*
X14307682Y-11144150D01*
X14307682Y-11144150D02*
X14336253Y-11144150D01*
X14336253Y-11144150D02*
X14355301Y-11153674D01*
X14355301Y-11153674D02*
X14364825Y-11163198D01*
X14364825Y-11163198D02*
X14374349Y-11182246D01*
X14374349Y-11182246D02*
X14374349Y-11239388D01*
X14374349Y-11239388D02*
X14364825Y-11258436D01*
X14364825Y-11258436D02*
X14355301Y-11267960D01*
X14355301Y-11267960D02*
X14336253Y-11277484D01*
X14336253Y-11277484D02*
X14307682Y-11277484D01*
X14431492Y-11144150D02*
X14507682Y-11144150D01*
X14460063Y-11077484D02*
X14460063Y-11248912D01*
X14460063Y-11248912D02*
X14469587Y-11267960D01*
X14469587Y-11267960D02*
X14488634Y-11277484D01*
X14488634Y-11277484D02*
X14507682Y-11277484D01*
X14726730Y-11144150D02*
X14726730Y-11344150D01*
X14726730Y-11153674D02*
X14745777Y-11144150D01*
X14745777Y-11144150D02*
X14783873Y-11144150D01*
X14783873Y-11144150D02*
X14802920Y-11153674D01*
X14802920Y-11153674D02*
X14812444Y-11163198D01*
X14812444Y-11163198D02*
X14821968Y-11182246D01*
X14821968Y-11182246D02*
X14821968Y-11239388D01*
X14821968Y-11239388D02*
X14812444Y-11258436D01*
X14812444Y-11258436D02*
X14802920Y-11267960D01*
X14802920Y-11267960D02*
X14783873Y-11277484D01*
X14783873Y-11277484D02*
X14745777Y-11277484D01*
X14745777Y-11277484D02*
X14726730Y-11267960D01*
X14936253Y-11277484D02*
X14917206Y-11267960D01*
X14917206Y-11267960D02*
X14907682Y-11248912D01*
X14907682Y-11248912D02*
X14907682Y-11077484D01*
X15098158Y-11277484D02*
X15098158Y-11172722D01*
X15098158Y-11172722D02*
X15088634Y-11153674D01*
X15088634Y-11153674D02*
X15069587Y-11144150D01*
X15069587Y-11144150D02*
X15031492Y-11144150D01*
X15031492Y-11144150D02*
X15012444Y-11153674D01*
X15098158Y-11267960D02*
X15079111Y-11277484D01*
X15079111Y-11277484D02*
X15031492Y-11277484D01*
X15031492Y-11277484D02*
X15012444Y-11267960D01*
X15012444Y-11267960D02*
X15002920Y-11248912D01*
X15002920Y-11248912D02*
X15002920Y-11229865D01*
X15002920Y-11229865D02*
X15012444Y-11210817D01*
X15012444Y-11210817D02*
X15031492Y-11201293D01*
X15031492Y-11201293D02*
X15079111Y-11201293D01*
X15079111Y-11201293D02*
X15098158Y-11191769D01*
X15164825Y-11144150D02*
X15241015Y-11144150D01*
X15193396Y-11077484D02*
X15193396Y-11248912D01*
X15193396Y-11248912D02*
X15202920Y-11267960D01*
X15202920Y-11267960D02*
X15221968Y-11277484D01*
X15221968Y-11277484D02*
X15241015Y-11277484D01*
X15383873Y-11267960D02*
X15364825Y-11277484D01*
X15364825Y-11277484D02*
X15326730Y-11277484D01*
X15326730Y-11277484D02*
X15307682Y-11267960D01*
X15307682Y-11267960D02*
X15298158Y-11248912D01*
X15298158Y-11248912D02*
X15298158Y-11172722D01*
X15298158Y-11172722D02*
X15307682Y-11153674D01*
X15307682Y-11153674D02*
X15326730Y-11144150D01*
X15326730Y-11144150D02*
X15364825Y-11144150D01*
X15364825Y-11144150D02*
X15383873Y-11153674D01*
X15383873Y-11153674D02*
X15393396Y-11172722D01*
X15393396Y-11172722D02*
X15393396Y-11191769D01*
X15393396Y-11191769D02*
X15298158Y-11210817D01*
X15564825Y-11277484D02*
X15564825Y-11077484D01*
X15564825Y-11267960D02*
X15545777Y-11277484D01*
X15545777Y-11277484D02*
X15507682Y-11277484D01*
X15507682Y-11277484D02*
X15488634Y-11267960D01*
X15488634Y-11267960D02*
X15479111Y-11258436D01*
X15479111Y-11258436D02*
X15469587Y-11239388D01*
X15469587Y-11239388D02*
X15469587Y-11182246D01*
X15469587Y-11182246D02*
X15479111Y-11163198D01*
X15479111Y-11163198D02*
X15488634Y-11153674D01*
X15488634Y-11153674D02*
X15507682Y-11144150D01*
X15507682Y-11144150D02*
X15545777Y-11144150D01*
X15545777Y-11144150D02*
X15564825Y-11153674D01*
X15641015Y-11353674D02*
X15650539Y-11344150D01*
X15650539Y-11344150D02*
X15669587Y-11315579D01*
X15669587Y-11315579D02*
X15679111Y-11296531D01*
X15679111Y-11296531D02*
X15688634Y-11267960D01*
X15688634Y-11267960D02*
X15698158Y-11220341D01*
X15698158Y-11220341D02*
X15698158Y-11182246D01*
X15698158Y-11182246D02*
X15688634Y-11134627D01*
X15688634Y-11134627D02*
X15679111Y-11106055D01*
X15679111Y-11106055D02*
X15669587Y-11087008D01*
X15669587Y-11087008D02*
X15650539Y-11058436D01*
X15650539Y-11058436D02*
X15641015Y-11048912D01*
M02*
